ITEM: TIMESTEP
0
ITEM: NUMBER OF ENTRIES
1
ITEM: BOX BOUNDS xy xz yz pp pp pp
-10 10 0
-10 10 0
-10 10 0
ITEM: ENTRIES index c_permol[1] c_permol[2] c_permol[3] 
1 1.199 0 10 
ITEM: TIMESTEP
1
ITEM: NUMBER OF ENTRIES
1
ITEM: BOX BOUNDS xy xz yz pp pp pp
-10 10 0
-10 10 0
-10 10 0
ITEM: ENTRIES index c_permol[1] c_permol[2] c_permol[3] 
1 1.199 0 9.9987 
ITEM: TIMESTEP
2
ITEM: NUMBER OF ENTRIES
1
ITEM: BOX BOUNDS xy xz yz pp pp pp
-10 10 0
-10 10 0
-10 10 0
ITEM: ENTRIES index c_permol[1] c_permol[2] c_permol[3] 
1 1.199 0 9.99479 
ITEM: TIMESTEP
3
ITEM: NUMBER OF ENTRIES
1
ITEM: BOX BOUNDS xy xz yz pp pp pp
-10 10 0
-10 10 0
-10 10 0
ITEM: ENTRIES index c_permol[1] c_permol[2] c_permol[3] 
1 1.199 0 9.98827 
ITEM: TIMESTEP
4
ITEM: NUMBER OF ENTRIES
1
ITEM: BOX BOUNDS xy xz yz pp pp pp
-10 10 0
-10 10 0
-10 10 0
ITEM: ENTRIES index c_permol[1] c_permol[2] c_permol[3] 
1 1.199 0 9.97915 
ITEM: TIMESTEP
5
ITEM: NUMBER OF ENTRIES
1
ITEM: BOX BOUNDS xy xz yz pp pp pp
-10 10 0
-10 10 0
-10 10 0
ITEM: ENTRIES index c_permol[1] c_permol[2] c_permol[3] 
1 1.199 0 9.96743 
ITEM: TIMESTEP
6
ITEM: NUMBER OF ENTRIES
1
ITEM: BOX BOUNDS xy xz yz pp pp pp
-10 10 0
-10 10 0
-10 10 0
ITEM: ENTRIES index c_permol[1] c_permol[2] c_permol[3] 
1 1.199 0 9.95311 
ITEM: TIMESTEP
7
ITEM: NUMBER OF ENTRIES
1
ITEM: BOX BOUNDS xy xz yz pp pp pp
-10 10 0
-10 10 0
-10 10 0
ITEM: ENTRIES index c_permol[1] c_permol[2] c_permol[3] 
1 1.19901 0 9.9362 
ITEM: TIMESTEP
8
ITEM: NUMBER OF ENTRIES
1
ITEM: BOX BOUNDS xy xz yz pp pp pp
-10 10 0
-10 10 0
-10 10 0
ITEM: ENTRIES index c_permol[1] c_permol[2] c_permol[3] 
1 1.19901 0 9.9167 
ITEM: TIMESTEP
9
ITEM: NUMBER OF ENTRIES
1
ITEM: BOX BOUNDS xy xz yz pp pp pp
-10 10 0
-10 10 0
-10 10 0
ITEM: ENTRIES index c_permol[1] c_permol[2] c_permol[3] 
1 1.19901 0 9.89461 
ITEM: TIMESTEP
10
ITEM: NUMBER OF ENTRIES
1
ITEM: BOX BOUNDS xy xz yz pp pp pp
-10 10 0
-10 10 0
-10 10 0
ITEM: ENTRIES index c_permol[1] c_permol[2] c_permol[3] 
1 1.19901 0 9.86994 
ITEM: TIMESTEP
11
ITEM: NUMBER OF ENTRIES
1
ITEM: BOX BOUNDS xy xz yz pp pp pp
-10 10 0
-10 10 0
-10 10 0
ITEM: ENTRIES index c_permol[1] c_permol[2] c_permol[3] 
1 1.19902 0 9.8427 
ITEM: TIMESTEP
12
ITEM: NUMBER OF ENTRIES
1
ITEM: BOX BOUNDS xy xz yz pp pp pp
-10 10 0
-10 10 0
-10 10 0
ITEM: ENTRIES index c_permol[1] c_permol[2] c_permol[3] 
1 1.19902 0 9.8129 
ITEM: TIMESTEP
13
ITEM: NUMBER OF ENTRIES
1
ITEM: BOX BOUNDS xy xz yz pp pp pp
-10 10 0
-10 10 0
-10 10 0
ITEM: ENTRIES index c_permol[1] c_permol[2] c_permol[3] 
1 1.19902 0 9.78054 
ITEM: TIMESTEP
14
ITEM: NUMBER OF ENTRIES
1
ITEM: BOX BOUNDS xy xz yz pp pp pp
-10 10 0
-10 10 0
-10 10 0
ITEM: ENTRIES index c_permol[1] c_permol[2] c_permol[3] 
1 1.19903 0 9.74562 
ITEM: TIMESTEP
15
ITEM: NUMBER OF ENTRIES
1
ITEM: BOX BOUNDS xy xz yz pp pp pp
-10 10 0
-10 10 0
-10 10 0
ITEM: ENTRIES index c_permol[1] c_permol[2] c_permol[3] 
1 1.19903 0 9.70817 
ITEM: TIMESTEP
16
ITEM: NUMBER OF ENTRIES
1
ITEM: BOX BOUNDS xy xz yz pp pp pp
-10 10 0
-10 10 0
-10 10 0
ITEM: ENTRIES index c_permol[1] c_permol[2] c_permol[3] 
1 1.19903 0 9.66819 
ITEM: TIMESTEP
17
ITEM: NUMBER OF ENTRIES
1
ITEM: BOX BOUNDS xy xz yz pp pp pp
-10 10 0
-10 10 0
-10 10 0
ITEM: ENTRIES index c_permol[1] c_permol[2] c_permol[3] 
1 1.19904 0 9.62568 
ITEM: TIMESTEP
18
ITEM: NUMBER OF ENTRIES
1
ITEM: BOX BOUNDS xy xz yz pp pp pp
-10 10 0
-10 10 0
-10 10 0
ITEM: ENTRIES index c_permol[1] c_permol[2] c_permol[3] 
1 1.19904 0 9.58067 
ITEM: TIMESTEP
19
ITEM: NUMBER OF ENTRIES
1
ITEM: BOX BOUNDS xy xz yz pp pp pp
-10 10 0
-10 10 0
-10 10 0
ITEM: ENTRIES index c_permol[1] c_permol[2] c_permol[3] 
1 1.19905 0 9.53316 
ITEM: TIMESTEP
20
ITEM: NUMBER OF ENTRIES
1
ITEM: BOX BOUNDS xy xz yz pp pp pp
-10 10 0
-10 10 0
-10 10 0
ITEM: ENTRIES index c_permol[1] c_permol[2] c_permol[3] 
1 1.19905 0 9.48316 
ITEM: TIMESTEP
21
ITEM: NUMBER OF ENTRIES
1
ITEM: BOX BOUNDS xy xz yz pp pp pp
-10 10 0
-10 10 0
-10 10 0
ITEM: ENTRIES index c_permol[1] c_permol[2] c_permol[3] 
1 1.19906 0 9.43069 
ITEM: TIMESTEP
22
ITEM: NUMBER OF ENTRIES
1
ITEM: BOX BOUNDS xy xz yz pp pp pp
-10 10 0
-10 10 0
-10 10 0
ITEM: ENTRIES index c_permol[1] c_permol[2] c_permol[3] 
1 1.19906 0 9.37577 
ITEM: TIMESTEP
23
ITEM: NUMBER OF ENTRIES
1
ITEM: BOX BOUNDS xy xz yz pp pp pp
-10 10 0
-10 10 0
-10 10 0
ITEM: ENTRIES index c_permol[1] c_permol[2] c_permol[3] 
1 1.19907 0 9.3184 
ITEM: TIMESTEP
24
ITEM: NUMBER OF ENTRIES
1
ITEM: BOX BOUNDS xy xz yz pp pp pp
-10 10 0
-10 10 0
-10 10 0
ITEM: ENTRIES index c_permol[1] c_permol[2] c_permol[3] 
1 1.19907 0 9.2586 
ITEM: TIMESTEP
25
ITEM: NUMBER OF ENTRIES
1
ITEM: BOX BOUNDS xy xz yz pp pp pp
-10 10 0
-10 10 0
-10 10 0
ITEM: ENTRIES index c_permol[1] c_permol[2] c_permol[3] 
1 1.19908 0 9.19639 
ITEM: TIMESTEP
26
ITEM: NUMBER OF ENTRIES
1
ITEM: BOX BOUNDS xy xz yz pp pp pp
-10 10 0
-10 10 0
-10 10 0
ITEM: ENTRIES index c_permol[1] c_permol[2] c_permol[3] 
1 1.19909 0 9.13178 
ITEM: TIMESTEP
27
ITEM: NUMBER OF ENTRIES
1
ITEM: BOX BOUNDS xy xz yz pp pp pp
-10 10 0
-10 10 0
-10 10 0
ITEM: ENTRIES index c_permol[1] c_permol[2] c_permol[3] 
1 1.19909 0 9.06478 
ITEM: TIMESTEP
28
ITEM: NUMBER OF ENTRIES
1
ITEM: BOX BOUNDS xy xz yz pp pp pp
-10 10 0
-10 10 0
-10 10 0
ITEM: ENTRIES index c_permol[1] c_permol[2] c_permol[3] 
1 1.1991 0 8.99543 
ITEM: TIMESTEP
29
ITEM: NUMBER OF ENTRIES
1
ITEM: BOX BOUNDS xy xz yz pp pp pp
-10 10 0
-10 10 0
-10 10 0
ITEM: ENTRIES index c_permol[1] c_permol[2] c_permol[3] 
1 1.19911 0 8.92373 
ITEM: TIMESTEP
30
ITEM: NUMBER OF ENTRIES
1
ITEM: BOX BOUNDS xy xz yz pp pp pp
-10 10 0
-10 10 0
-10 10 0
ITEM: ENTRIES index c_permol[1] c_permol[2] c_permol[3] 
1 1.19912 0 8.84971 
ITEM: TIMESTEP
31
ITEM: NUMBER OF ENTRIES
1
ITEM: BOX BOUNDS xy xz yz pp pp pp
-10 10 0
-10 10 0
-10 10 0
ITEM: ENTRIES index c_permol[1] c_permol[2] c_permol[3] 
1 1.19912 0 8.77338 
ITEM: TIMESTEP
32
ITEM: NUMBER OF ENTRIES
1
ITEM: BOX BOUNDS xy xz yz pp pp pp
-10 10 0
-10 10 0
-10 10 0
ITEM: ENTRIES index c_permol[1] c_permol[2] c_permol[3] 
1 1.19913 0 8.69476 
ITEM: TIMESTEP
33
ITEM: NUMBER OF ENTRIES
1
ITEM: BOX BOUNDS xy xz yz pp pp pp
-10 10 0
-10 10 0
-10 10 0
ITEM: ENTRIES index c_permol[1] c_permol[2] c_permol[3] 
1 1.19914 0 8.61387 
ITEM: TIMESTEP
34
ITEM: NUMBER OF ENTRIES
1
ITEM: BOX BOUNDS xy xz yz pp pp pp
-10 10 0
-10 10 0
-10 10 0
ITEM: ENTRIES index c_permol[1] c_permol[2] c_permol[3] 
1 1.19915 0 8.53074 
ITEM: TIMESTEP
35
ITEM: NUMBER OF ENTRIES
1
ITEM: BOX BOUNDS xy xz yz pp pp pp
-10 10 0
-10 10 0
-10 10 0
ITEM: ENTRIES index c_permol[1] c_permol[2] c_permol[3] 
1 1.19916 0 8.44539 
ITEM: TIMESTEP
36
ITEM: NUMBER OF ENTRIES
1
ITEM: BOX BOUNDS xy xz yz pp pp pp
-10 10 0
-10 10 0
-10 10 0
ITEM: ENTRIES index c_permol[1] c_permol[2] c_permol[3] 
1 1.19916 0 8.35783 
ITEM: TIMESTEP
37
ITEM: NUMBER OF ENTRIES
1
ITEM: BOX BOUNDS xy xz yz pp pp pp
-10 10 0
-10 10 0
-10 10 0
ITEM: ENTRIES index c_permol[1] c_permol[2] c_permol[3] 
1 1.19917 0 8.2681 
ITEM: TIMESTEP
38
ITEM: NUMBER OF ENTRIES
1
ITEM: BOX BOUNDS xy xz yz pp pp pp
-10 10 0
-10 10 0
-10 10 0
ITEM: ENTRIES index c_permol[1] c_permol[2] c_permol[3] 
1 1.19918 0 8.17621 
ITEM: TIMESTEP
39
ITEM: NUMBER OF ENTRIES
1
ITEM: BOX BOUNDS xy xz yz pp pp pp
-10 10 0
-10 10 0
-10 10 0
ITEM: ENTRIES index c_permol[1] c_permol[2] c_permol[3] 
1 1.19919 0 8.08219 
ITEM: TIMESTEP
40
ITEM: NUMBER OF ENTRIES
1
ITEM: BOX BOUNDS xy xz yz pp pp pp
-10 10 0
-10 10 0
-10 10 0
ITEM: ENTRIES index c_permol[1] c_permol[2] c_permol[3] 
1 1.1992 0 7.98606 
ITEM: TIMESTEP
41
ITEM: NUMBER OF ENTRIES
1
ITEM: BOX BOUNDS xy xz yz pp pp pp
-10 10 0
-10 10 0
-10 10 0
ITEM: ENTRIES index c_permol[1] c_permol[2] c_permol[3] 
1 1.19921 0 7.88785 
ITEM: TIMESTEP
42
ITEM: NUMBER OF ENTRIES
1
ITEM: BOX BOUNDS xy xz yz pp pp pp
-10 10 0
-10 10 0
-10 10 0
ITEM: ENTRIES index c_permol[1] c_permol[2] c_permol[3] 
1 1.19922 0 7.78759 
ITEM: TIMESTEP
43
ITEM: NUMBER OF ENTRIES
1
ITEM: BOX BOUNDS xy xz yz pp pp pp
-10 10 0
-10 10 0
-10 10 0
ITEM: ENTRIES index c_permol[1] c_permol[2] c_permol[3] 
1 1.19923 0 7.68529 
ITEM: TIMESTEP
44
ITEM: NUMBER OF ENTRIES
1
ITEM: BOX BOUNDS xy xz yz pp pp pp
-10 10 0
-10 10 0
-10 10 0
ITEM: ENTRIES index c_permol[1] c_permol[2] c_permol[3] 
1 1.19924 0 7.58099 
ITEM: TIMESTEP
45
ITEM: NUMBER OF ENTRIES
1
ITEM: BOX BOUNDS xy xz yz pp pp pp
-10 10 0
-10 10 0
-10 10 0
ITEM: ENTRIES index c_permol[1] c_permol[2] c_permol[3] 
1 1.19925 0 7.47471 
ITEM: TIMESTEP
46
ITEM: NUMBER OF ENTRIES
1
ITEM: BOX BOUNDS xy xz yz pp pp pp
-10 10 0
-10 10 0
-10 10 0
ITEM: ENTRIES index c_permol[1] c_permol[2] c_permol[3] 
1 1.19926 0 7.36649 
ITEM: TIMESTEP
47
ITEM: NUMBER OF ENTRIES
1
ITEM: BOX BOUNDS xy xz yz pp pp pp
-10 10 0
-10 10 0
-10 10 0
ITEM: ENTRIES index c_permol[1] c_permol[2] c_permol[3] 
1 1.19927 0 7.25635 
ITEM: TIMESTEP
48
ITEM: NUMBER OF ENTRIES
1
ITEM: BOX BOUNDS xy xz yz pp pp pp
-10 10 0
-10 10 0
-10 10 0
ITEM: ENTRIES index c_permol[1] c_permol[2] c_permol[3] 
1 1.19929 0 7.14431 
ITEM: TIMESTEP
49
ITEM: NUMBER OF ENTRIES
1
ITEM: BOX BOUNDS xy xz yz pp pp pp
-10 10 0
-10 10 0
-10 10 0
ITEM: ENTRIES index c_permol[1] c_permol[2] c_permol[3] 
1 1.1993 0 7.03041 
ITEM: TIMESTEP
50
ITEM: NUMBER OF ENTRIES
1
ITEM: BOX BOUNDS xy xz yz pp pp pp
-10 10 0
-10 10 0
-10 10 0
ITEM: ENTRIES index c_permol[1] c_permol[2] c_permol[3] 
1 1.19931 0 6.91468 
ITEM: TIMESTEP
51
ITEM: NUMBER OF ENTRIES
1
ITEM: BOX BOUNDS xy xz yz pp pp pp
-10 10 0
-10 10 0
-10 10 0
ITEM: ENTRIES index c_permol[1] c_permol[2] c_permol[3] 
1 1.19932 0 6.79714 
ITEM: TIMESTEP
52
ITEM: NUMBER OF ENTRIES
1
ITEM: BOX BOUNDS xy xz yz pp pp pp
-10 10 0
-10 10 0
-10 10 0
ITEM: ENTRIES index c_permol[1] c_permol[2] c_permol[3] 
1 1.19933 0 6.67784 
ITEM: TIMESTEP
53
ITEM: NUMBER OF ENTRIES
1
ITEM: BOX BOUNDS xy xz yz pp pp pp
-10 10 0
-10 10 0
-10 10 0
ITEM: ENTRIES index c_permol[1] c_permol[2] c_permol[3] 
1 1.19934 0 6.55679 
ITEM: TIMESTEP
54
ITEM: NUMBER OF ENTRIES
1
ITEM: BOX BOUNDS xy xz yz pp pp pp
-10 10 0
-10 10 0
-10 10 0
ITEM: ENTRIES index c_permol[1] c_permol[2] c_permol[3] 
1 1.19936 0 6.43403 
ITEM: TIMESTEP
55
ITEM: NUMBER OF ENTRIES
1
ITEM: BOX BOUNDS xy xz yz pp pp pp
-10 10 0
-10 10 0
-10 10 0
ITEM: ENTRIES index c_permol[1] c_permol[2] c_permol[3] 
1 1.19937 0 6.3096 
ITEM: TIMESTEP
56
ITEM: NUMBER OF ENTRIES
1
ITEM: BOX BOUNDS xy xz yz pp pp pp
-10 10 0
-10 10 0
-10 10 0
ITEM: ENTRIES index c_permol[1] c_permol[2] c_permol[3] 
1 1.19938 0 6.18352 
ITEM: TIMESTEP
57
ITEM: NUMBER OF ENTRIES
1
ITEM: BOX BOUNDS xy xz yz pp pp pp
-10 10 0
-10 10 0
-10 10 0
ITEM: ENTRIES index c_permol[1] c_permol[2] c_permol[3] 
1 1.19939 0 6.05583 
ITEM: TIMESTEP
58
ITEM: NUMBER OF ENTRIES
1
ITEM: BOX BOUNDS xy xz yz pp pp pp
-10 10 0
-10 10 0
-10 10 0
ITEM: ENTRIES index c_permol[1] c_permol[2] c_permol[3] 
1 1.19941 0 5.92656 
ITEM: TIMESTEP
59
ITEM: NUMBER OF ENTRIES
1
ITEM: BOX BOUNDS xy xz yz pp pp pp
-10 10 0
-10 10 0
-10 10 0
ITEM: ENTRIES index c_permol[1] c_permol[2] c_permol[3] 
1 1.19942 0 5.79575 
ITEM: TIMESTEP
60
ITEM: NUMBER OF ENTRIES
1
ITEM: BOX BOUNDS xy xz yz pp pp pp
-10 10 0
-10 10 0
-10 10 0
ITEM: ENTRIES index c_permol[1] c_permol[2] c_permol[3] 
1 1.19943 0 5.66342 
ITEM: TIMESTEP
61
ITEM: NUMBER OF ENTRIES
1
ITEM: BOX BOUNDS xy xz yz pp pp pp
-10 10 0
-10 10 0
-10 10 0
ITEM: ENTRIES index c_permol[1] c_permol[2] c_permol[3] 
1 1.19945 0 5.52962 
ITEM: TIMESTEP
62
ITEM: NUMBER OF ENTRIES
1
ITEM: BOX BOUNDS xy xz yz pp pp pp
-10 10 0
-10 10 0
-10 10 0
ITEM: ENTRIES index c_permol[1] c_permol[2] c_permol[3] 
1 1.19946 0 5.39437 
ITEM: TIMESTEP
63
ITEM: NUMBER OF ENTRIES
1
ITEM: BOX BOUNDS xy xz yz pp pp pp
-10 10 0
-10 10 0
-10 10 0
ITEM: ENTRIES index c_permol[1] c_permol[2] c_permol[3] 
1 1.19947 0 5.25772 
ITEM: TIMESTEP
64
ITEM: NUMBER OF ENTRIES
1
ITEM: BOX BOUNDS xy xz yz pp pp pp
-10 10 0
-10 10 0
-10 10 0
ITEM: ENTRIES index c_permol[1] c_permol[2] c_permol[3] 
1 1.19949 0 5.1197 
ITEM: TIMESTEP
65
ITEM: NUMBER OF ENTRIES
1
ITEM: BOX BOUNDS xy xz yz pp pp pp
-10 10 0
-10 10 0
-10 10 0
ITEM: ENTRIES index c_permol[1] c_permol[2] c_permol[3] 
1 1.1995 0 4.98035 
ITEM: TIMESTEP
66
ITEM: NUMBER OF ENTRIES
1
ITEM: BOX BOUNDS xy xz yz pp pp pp
-10 10 0
-10 10 0
-10 10 0
ITEM: ENTRIES index c_permol[1] c_permol[2] c_permol[3] 
1 1.19952 0 4.83969 
ITEM: TIMESTEP
67
ITEM: NUMBER OF ENTRIES
1
ITEM: BOX BOUNDS xy xz yz pp pp pp
-10 10 0
-10 10 0
-10 10 0
ITEM: ENTRIES index c_permol[1] c_permol[2] c_permol[3] 
1 1.19953 0 4.69778 
ITEM: TIMESTEP
68
ITEM: NUMBER OF ENTRIES
1
ITEM: BOX BOUNDS xy xz yz pp pp pp
-10 10 0
-10 10 0
-10 10 0
ITEM: ENTRIES index c_permol[1] c_permol[2] c_permol[3] 
1 1.19954 0 4.55463 
ITEM: TIMESTEP
69
ITEM: NUMBER OF ENTRIES
1
ITEM: BOX BOUNDS xy xz yz pp pp pp
-10 10 0
-10 10 0
-10 10 0
ITEM: ENTRIES index c_permol[1] c_permol[2] c_permol[3] 
1 1.19956 0 4.41031 
ITEM: TIMESTEP
70
ITEM: NUMBER OF ENTRIES
1
ITEM: BOX BOUNDS xy xz yz pp pp pp
-10 10 0
-10 10 0
-10 10 0
ITEM: ENTRIES index c_permol[1] c_permol[2] c_permol[3] 
1 1.19957 0 4.26483 
ITEM: TIMESTEP
71
ITEM: NUMBER OF ENTRIES
1
ITEM: BOX BOUNDS xy xz yz pp pp pp
-10 10 0
-10 10 0
-10 10 0
ITEM: ENTRIES index c_permol[1] c_permol[2] c_permol[3] 
1 1.19959 0 4.11824 
ITEM: TIMESTEP
72
ITEM: NUMBER OF ENTRIES
1
ITEM: BOX BOUNDS xy xz yz pp pp pp
-10 10 0
-10 10 0
-10 10 0
ITEM: ENTRIES index c_permol[1] c_permol[2] c_permol[3] 
1 1.1996 0 3.97057 
ITEM: TIMESTEP
73
ITEM: NUMBER OF ENTRIES
1
ITEM: BOX BOUNDS xy xz yz pp pp pp
-10 10 0
-10 10 0
-10 10 0
ITEM: ENTRIES index c_permol[1] c_permol[2] c_permol[3] 
1 1.19962 0 3.82187 
ITEM: TIMESTEP
74
ITEM: NUMBER OF ENTRIES
1
ITEM: BOX BOUNDS xy xz yz pp pp pp
-10 10 0
-10 10 0
-10 10 0
ITEM: ENTRIES index c_permol[1] c_permol[2] c_permol[3] 
1 1.19963 0 3.67217 
ITEM: TIMESTEP
75
ITEM: NUMBER OF ENTRIES
1
ITEM: BOX BOUNDS xy xz yz pp pp pp
-10 10 0
-10 10 0
-10 10 0
ITEM: ENTRIES index c_permol[1] c_permol[2] c_permol[3] 
1 1.19965 0 3.52152 
ITEM: TIMESTEP
76
ITEM: NUMBER OF ENTRIES
1
ITEM: BOX BOUNDS xy xz yz pp pp pp
-10 10 0
-10 10 0
-10 10 0
ITEM: ENTRIES index c_permol[1] c_permol[2] c_permol[3] 
1 1.19966 0 3.36995 
ITEM: TIMESTEP
77
ITEM: NUMBER OF ENTRIES
1
ITEM: BOX BOUNDS xy xz yz pp pp pp
-10 10 0
-10 10 0
-10 10 0
ITEM: ENTRIES index c_permol[1] c_permol[2] c_permol[3] 
1 1.19968 0 3.21749 
ITEM: TIMESTEP
78
ITEM: NUMBER OF ENTRIES
1
ITEM: BOX BOUNDS xy xz yz pp pp pp
-10 10 0
-10 10 0
-10 10 0
ITEM: ENTRIES index c_permol[1] c_permol[2] c_permol[3] 
1 1.19969 0 3.0642 
ITEM: TIMESTEP
79
ITEM: NUMBER OF ENTRIES
1
ITEM: BOX BOUNDS xy xz yz pp pp pp
-10 10 0
-10 10 0
-10 10 0
ITEM: ENTRIES index c_permol[1] c_permol[2] c_permol[3] 
1 1.19971 0 2.91011 
ITEM: TIMESTEP
80
ITEM: NUMBER OF ENTRIES
1
ITEM: BOX BOUNDS xy xz yz pp pp pp
-10 10 0
-10 10 0
-10 10 0
ITEM: ENTRIES index c_permol[1] c_permol[2] c_permol[3] 
1 1.19972 0 2.75526 
ITEM: TIMESTEP
81
ITEM: NUMBER OF ENTRIES
1
ITEM: BOX BOUNDS xy xz yz pp pp pp
-10 10 0
-10 10 0
-10 10 0
ITEM: ENTRIES index c_permol[1] c_permol[2] c_permol[3] 
1 1.19974 0 2.59969 
ITEM: TIMESTEP
82
ITEM: NUMBER OF ENTRIES
1
ITEM: BOX BOUNDS xy xz yz pp pp pp
-10 10 0
-10 10 0
-10 10 0
ITEM: ENTRIES index c_permol[1] c_permol[2] c_permol[3] 
1 1.19976 0 2.44345 
ITEM: TIMESTEP
83
ITEM: NUMBER OF ENTRIES
1
ITEM: BOX BOUNDS xy xz yz pp pp pp
-10 10 0
-10 10 0
-10 10 0
ITEM: ENTRIES index c_permol[1] c_permol[2] c_permol[3] 
1 1.19977 0 2.28656 
ITEM: TIMESTEP
84
ITEM: NUMBER OF ENTRIES
1
ITEM: BOX BOUNDS xy xz yz pp pp pp
-10 10 0
-10 10 0
-10 10 0
ITEM: ENTRIES index c_permol[1] c_permol[2] c_permol[3] 
1 1.19979 0 2.12908 
ITEM: TIMESTEP
85
ITEM: NUMBER OF ENTRIES
1
ITEM: BOX BOUNDS xy xz yz pp pp pp
-10 10 0
-10 10 0
-10 10 0
ITEM: ENTRIES index c_permol[1] c_permol[2] c_permol[3] 
1 1.1998 0 1.97105 
ITEM: TIMESTEP
86
ITEM: NUMBER OF ENTRIES
1
ITEM: BOX BOUNDS xy xz yz pp pp pp
-10 10 0
-10 10 0
-10 10 0
ITEM: ENTRIES index c_permol[1] c_permol[2] c_permol[3] 
1 1.19982 0 1.8125 
ITEM: TIMESTEP
87
ITEM: NUMBER OF ENTRIES
1
ITEM: BOX BOUNDS xy xz yz pp pp pp
-10 10 0
-10 10 0
-10 10 0
ITEM: ENTRIES index c_permol[1] c_permol[2] c_permol[3] 
1 1.19983 0 1.65348 
ITEM: TIMESTEP
88
ITEM: NUMBER OF ENTRIES
1
ITEM: BOX BOUNDS xy xz yz pp pp pp
-10 10 0
-10 10 0
-10 10 0
ITEM: ENTRIES index c_permol[1] c_permol[2] c_permol[3] 
1 1.19985 0 1.49402 
ITEM: TIMESTEP
89
ITEM: NUMBER OF ENTRIES
1
ITEM: BOX BOUNDS xy xz yz pp pp pp
-10 10 0
-10 10 0
-10 10 0
ITEM: ENTRIES index c_permol[1] c_permol[2] c_permol[3] 
1 1.19987 0 1.33418 
ITEM: TIMESTEP
90
ITEM: NUMBER OF ENTRIES
1
ITEM: BOX BOUNDS xy xz yz pp pp pp
-10 10 0
-10 10 0
-10 10 0
ITEM: ENTRIES index c_permol[1] c_permol[2] c_permol[3] 
1 1.19988 0 1.17398 
ITEM: TIMESTEP
91
ITEM: NUMBER OF ENTRIES
1
ITEM: BOX BOUNDS xy xz yz pp pp pp
-10 10 0
-10 10 0
-10 10 0
ITEM: ENTRIES index c_permol[1] c_permol[2] c_permol[3] 
1 1.1999 0 1.01348 
ITEM: TIMESTEP
92
ITEM: NUMBER OF ENTRIES
1
ITEM: BOX BOUNDS xy xz yz pp pp pp
-10 10 0
-10 10 0
-10 10 0
ITEM: ENTRIES index c_permol[1] c_permol[2] c_permol[3] 
1 1.19991 0 0.852718 
ITEM: TIMESTEP
93
ITEM: NUMBER OF ENTRIES
1
ITEM: BOX BOUNDS xy xz yz pp pp pp
-10 10 0
-10 10 0
-10 10 0
ITEM: ENTRIES index c_permol[1] c_permol[2] c_permol[3] 
1 1.19993 0 0.691731 
ITEM: TIMESTEP
94
ITEM: NUMBER OF ENTRIES
1
ITEM: BOX BOUNDS xy xz yz pp pp pp
-10 10 0
-10 10 0
-10 10 0
ITEM: ENTRIES index c_permol[1] c_permol[2] c_permol[3] 
1 1.19995 0 0.530562 
ITEM: TIMESTEP
95
ITEM: NUMBER OF ENTRIES
1
ITEM: BOX BOUNDS xy xz yz pp pp pp
-10 10 0
-10 10 0
-10 10 0
ITEM: ENTRIES index c_permol[1] c_permol[2] c_permol[3] 
1 1.19996 0 0.369255 
ITEM: TIMESTEP
96
ITEM: NUMBER OF ENTRIES
1
ITEM: BOX BOUNDS xy xz yz pp pp pp
-10 10 0
-10 10 0
-10 10 0
ITEM: ENTRIES index c_permol[1] c_permol[2] c_permol[3] 
1 1.19998 0 0.20785 
ITEM: TIMESTEP
97
ITEM: NUMBER OF ENTRIES
1
ITEM: BOX BOUNDS xy xz yz pp pp pp
-10 10 0
-10 10 0
-10 10 0
ITEM: ENTRIES index c_permol[1] c_permol[2] c_permol[3] 
1 1.2 0 0.0463908 
ITEM: TIMESTEP
98
ITEM: NUMBER OF ENTRIES
0
ITEM: BOX BOUNDS xy xz yz pp pp pp
-10 10 0
-10 10 0
-10 10 0
ITEM: ENTRIES index c_permol[1] c_permol[2] c_permol[3] 
ITEM: TIMESTEP
99
ITEM: NUMBER OF ENTRIES
0
ITEM: BOX BOUNDS xy xz yz pp pp pp
-10 10 0
-10 10 0
-10 10 0
ITEM: ENTRIES index c_permol[1] c_permol[2] c_permol[3] 
ITEM: TIMESTEP
100
ITEM: NUMBER OF ENTRIES
0
ITEM: BOX BOUNDS xy xz yz pp pp pp
-10 10 0
-10 10 0
-10 10 0
ITEM: ENTRIES index c_permol[1] c_permol[2] c_permol[3] 
